2022-01-04 22:03:20,234 [5] WARN  - {"id":"184419841","empresa":"TRIBAL_CR","folioOrigen":"B4Z73Y9APNRWAWE9O7W368HQ27YI2V","estado":"2","causaDevolucion":"0"}
2022-01-04 22:03:36,939 [40] WARN  - {"id":"169858302","empresa":"BEN_FRANK_056","folioOrigen":"2ACABD9B0FFCCECEFD530E786198BC","estado":"2","causaDevolucion":"0"}
2022-01-04 22:03:42,908 [5] WARN  - {"id":"138154936","empresa":"CORU_003","folioOrigen":"5944594063C977A66557BDC1905142","estado":"2","causaDevolucion":"0"}
2022-01-04 22:03:45,988 [41] WARN  - {"id":"156353831","empresa":"ISLIM_TELCO_054","folioOrigen":"A5F958C39BDFBFEB386840D0C0BAA0","estado":"2","causaDevolucion":"0"}
2022-01-04 22:03:50,307 [5] WARN  - {"id":"178452584","empresa":"TRIBAL_CR","folioOrigen":"03PPRRVOC9NQDEE5HJED5QGH879UAH","estado":"2","causaDevolucion":"0"}
